[
    {
        "id": 1,
        "name": "Consumos próprios"
    },
    {
        "id": 2,
        "name": "Autarquias"
    },
    {
        "id": 3,
        "name": "Instituições"
    },
    {
        "id": 4,
        "name": "Clientes Senhas de Águas"
    },
    {
        "id": 5,
        "name": "Estado - Tesouro"
    },
    {
        "id": 6,
        "name": "Empresa Pública"
    },
    {
        "id": 7,
        "name": "Estado Património"
    },
    {
        "id": 8,
        "name": "Coletivos"
    },
    {
        "id": 9,
        "name": "Domésticos"
    },
    {
        "id": 10,
        "name": "Comércio, Agricultura e Serviços"
    }
 ]