{
    "name": "MobileBI-metadata",
    "description": "Dummy data",
    "lastETL": "3",
    "remoteURL": "/metadata",
    "modules": [
        { "resource": "N1", "remoteURL":"N1", "lastETL":"2" ,"source": "f1" }, 
        //source - filtra os dados que atualiza. Para os dados de uma source, apaga-os e reescreve
        { "resource": "N1", "remoteURL":"N1","lastETL":"3","source": "f2" }
    ]
}
/*{
    "name": "MobileBI-metadata",
    "description": "Dummy data",
    "dateModified": "2015-07-19",
    "url": "data/metadata.json",
    "remoteURL": "/metadata",
    "version": "1.0",
    "modules": [
{ "resource": "Period", "url": "data/period_data.json","remoteURL":"period", "dateModified": "2015-08-17" },
{ "resource": "Region", "url": "data/region_data.json","remoteURL":"region","dateModified": "2015-01-17" },
{ "resource": "Sector", "url": "data/sector_data.json","remoteURL":"sector","dateModified": "2015-01-17" },
{ "resource": "Product", "url": "data/product_data.json","remoteURL":"product","dateModified": "2015-01-17" },
{ "resource": "ClientType", "url": "data/client_type_data.json","remoteURL":"client_type","dateModified": "2015-01-17" },
{ "resource": "Manufacturer", "url": "data/manufacturer_data.json","remoteURL":"manufacturer","dateModified": "2015-01-17" },
{ "resource": "ComplaintType", "url": "data/complaint_type_data.json","remoteURL":"complaint_type","dateModified": "2015-01-17" },
{ "resource": "Anomaly", "url": "data/anomaly_data.json","remoteURL":"anomaly","dateModified": "2015-06-30" },
{ "resource": "Billing", "url": "data/billing_data.json","remoteURL":"billing","dateModified": "2015-07-19" },
{ "resource": "Complaint", "url": "data/complaint_data.json","remoteURL":"complaint","dateModified": "2015-06-28" },
{ "resource": "Contracting", "url": "data/contracting_data.json","remoteURL":"contracting","dateModified": "2015-07-18" },
{ "resource": "Debt", "url": "data/debt_data.json","remoteURL":"debt","dateModified": "2015-07-05" },
{ "resource": "UnresolvedOrder", "url": "","remoteURL":"galpUnresolvedOrders","dateModified": "2015-07-05" },
{ "resource": "OrderState", "url": "","remoteURL":"order_state","dateModified": "2015-07-05" },
{ "resource": "OrderType", "url": "","remoteURL":"order_type","dateModified": "2015-07-05" },
{ "resource": "OrderLocal", "url": "","remoteURL":"order_local","dateModified": "2015-07-05" }
    ]
}*/