[
    {
        "id": 1,
        "month": 1,
        "year": 2014
    },
    {
        "id": 2,
        "month": 2,
        "year": 2014
    },
    {
        "id": 3,
        "month": 3,
        "year": 2014
    },
    {
        "id": 4,
        "month": 4,
        "year": 2014
    },
    {
        "id": 5,
        "month": 5,
        "year": 2014
    },
    {
        "id": 6,
        "month": 6,
        "year": 2014
    },
    {
        "id": 7,
        "month": 7,
        "year": 2014
    },
    {
        "id": 8,
        "month": 8,
        "year": 2014
    },
    {
        "id": 9,
        "month": 9,
        "year": 2014
    },
    {
        "id": 10,
        "month": 10,
        "year": 2014
    },
    {
        "id": 11,
        "month": 11,
        "year": 2014
    },
    {
        "id": 12,
        "month": 12,
        "year": 2014
    },
    {
        "id": 13,
        "month": 1,
        "year": 2015
    },
    {
        "id": 14,
        "month": 2,
        "year": 2015
    },
    {
        "id": 15,
        "month": 3,
        "year": 2015
    },
    {
        "id": 16,
        "month": 4,
        "year": 2015
    },
    {
        "id": 17,
        "month": 5,
        "year": 2015
    },
    {
        "id": 18,
        "month": 6,
        "year": 2015
    },
    {
        "id": 19,
        "month": 7,
        "year": 2015
    },
    {
        "id": 20,
        "month": 8,
        "year": 2015
    },
    {
        "id": 21,
        "month": 9,
        "year": 2015
    },
    {
        "id": 22,
        "month": 10,
        "year": 2015
    },
    {
        "id": 23,
        "month": 11,
        "year": 2015
    },
    {
        "id": 24,
        "month": 12,
        "year": 2015
    }
]